{ 
  "variables": {
    "name": "{{env `TF_VAR_image_name`}}",
    "secret": "{{env `GCP_KEY`}}"
  },

  "builders": [
    {
      "type": "googlecompute",
      "account_file": "{{user `secret`}}",
      "project_id": "teste-284212",
      "source_image_family": "ubuntu-2004-lts",
      "ssh_username": "ubuntu",
      "zone": "us-central1-a",
      "image_name": "{{user `name`}}",
      "image_description": "from ubuntu 2004-lts family",
      "image_labels": {
        "os_version": "ubuntu",
        "release": "2004"
      }
    }
  ],
  "provisioners": [
    {
      "type": "ansible",
      "playbook_file": "./nginx.yml",
      "galaxy_file": "./requirements.yml",
      "user": "ubuntu",
      "extra_arguments": ["-b"]
    },
    {
      "type": "file",
      "source": "test_nginx.py",
      "destination": "/tmp/test_nginx.py"
    },
    {
      "type": "shell",
      "inline": [
        "sudo apt-get update",
	"sudo apt-get install python3-pip -y",
	"sudo pip3 install --upgrade pip pytest testinfra importlib",
	"sudo pytest -v /tmp/test_nginx.py"
      ] 
    }
  ],
  "post-processors":[
    {
      "type": "manifest",
      "output": "manifest.json",
      "strip_path": true
    }
  ]
}
